%!PS-Adobe-3.0 EPSF-3.0
%%Creator: graphviz version 7.0.1 (20221109.1506)
%%Title: Guix package
%%Pages: 1
%%BoundingBox: 36 36 260 238
%%EndComments
save
%%BeginProlog
/DotDict 200 dict def
DotDict begin

/setupLatin1 {
mark
/EncodingVector 256 array def
 EncodingVector 0

ISOLatin1Encoding 0 255 getinterval putinterval
EncodingVector 45 /hyphen put

% Set up ISO Latin 1 character encoding
/starnetISO {
        dup dup findfont dup length dict begin
        { 1 index /FID ne { def }{ pop pop } ifelse
        } forall
        /Encoding EncodingVector def
        currentdict end definefont
} def
/Times-Roman starnetISO def
/Times-Italic starnetISO def
/Times-Bold starnetISO def
/Times-BoldItalic starnetISO def
/Helvetica starnetISO def
/Helvetica-Oblique starnetISO def
/Helvetica-Bold starnetISO def
/Helvetica-BoldOblique starnetISO def
/Courier starnetISO def
/Courier-Oblique starnetISO def
/Courier-Bold starnetISO def
/Courier-BoldOblique starnetISO def
cleartomark
} bind def

%%BeginResource: procset graphviz 0 0
/coord-font-family /Times-Roman def
/default-font-family /Times-Roman def
/coordfont coord-font-family findfont 8 scalefont def

/InvScaleFactor 1.0 def
/set_scale {
       dup 1 exch div /InvScaleFactor exch def
       scale
} bind def

% styles
/solid { [] 0 setdash } bind def
/dashed { [9 InvScaleFactor mul dup ] 0 setdash } bind def
/dotted { [1 InvScaleFactor mul 6 InvScaleFactor mul] 0 setdash } bind def
/invis {/fill {newpath} def /stroke {newpath} def /show {pop newpath} def} bind def
/bold { 2 setlinewidth } bind def
/filled { } bind def
/unfilled { } bind def
/rounded { } bind def
/diagonals { } bind def
/tapered { } bind def

% hooks for setting color 
/nodecolor { sethsbcolor } bind def
/edgecolor { sethsbcolor } bind def
/graphcolor { sethsbcolor } bind def
/nopcolor {pop pop pop} bind def

/beginpage {	% i j npages
	/npages exch def
	/j exch def
	/i exch def
	/str 10 string def
	npages 1 gt {
		gsave
			coordfont setfont
			0 0 moveto
			(\() show i str cvs show (,) show j str cvs show (\)) show
		grestore
	} if
} bind def

/set_font {
	findfont exch
	scalefont setfont
} def

% draw text fitted to its expected width
/alignedtext {			% width text
	/text exch def
	/width exch def
	gsave
		width 0 gt {
			[] 0 setdash
			text stringwidth pop width exch sub text length div 0 text ashow
		} if
	grestore
} def

/boxprim {				% xcorner ycorner xsize ysize
		4 2 roll
		moveto
		2 copy
		exch 0 rlineto
		0 exch rlineto
		pop neg 0 rlineto
		closepath
} bind def

/ellipse_path {
	/ry exch def
	/rx exch def
	/y exch def
	/x exch def
	matrix currentmatrix
	newpath
	x y translate
	rx ry scale
	0 0 1 0 360 arc
	setmatrix
} bind def

/endpage { showpage } bind def
/showpage { } def

/layercolorseq
	[	% layer color sequence - darkest to lightest
		[0 0 0]
		[.2 .8 .8]
		[.4 .8 .8]
		[.6 .8 .8]
		[.8 .8 .8]
	]
def

/layerlen layercolorseq length def

/setlayer {/maxlayer exch def /curlayer exch def
	layercolorseq curlayer 1 sub layerlen mod get
	aload pop sethsbcolor
	/nodecolor {nopcolor} def
	/edgecolor {nopcolor} def
	/graphcolor {nopcolor} def
} bind def

/onlayer { curlayer ne {invis} if } def

/onlayers {
	/myupper exch def
	/mylower exch def
	curlayer mylower lt
	curlayer myupper gt
	or
	{invis} if
} def

/curlayer 0 def

%%EndResource
%%EndProlog
%%BeginSetup
14 default-font-family set_font
% /arrowlength 10 def
% /arrowwidth 5 def

% make sure pdfmark is harmless for PS-interpreters other than Distiller
/pdfmark where {pop} {userdict /pdfmark /cleartomark load put} ifelse
% make '<<' and '>>' safe on PS Level 1 devices
/languagelevel where {pop languagelevel}{1} ifelse
2 lt {
    userdict (<<) cvn ([) cvn load put
    userdict (>>) cvn ([) cvn load put
} if

%%EndSetup
setupLatin1
%%Page: 1 1
%%PageBoundingBox: 36 36 260 238
%%PageOrientation: Portrait
0 0 1 beginpage
gsave
36 36 224 202 boxprim clip newpath
1 1 set_scale 0 rotate 40 40 translate
% 72851008
gsave
1 setlinewidth
0 0 0 nodecolor
newpath 125 189 moveto
46 189 lineto
46 171 lineto
125 171 lineto
closepath stroke
0 0 0 nodecolor
9 /dejavu sans set_font
54 177.8 moveto 63 (coreutils-8.25) alignedtext
grestore
% 49728512
gsave
1 setlinewidth
0 0 0 nodecolor
newpath 67 65 moveto
0 65 lineto
0 47 lineto
67 47 lineto
closepath stroke
0 0 0 nodecolor
9 /dejavu sans set_font
8 53.8 moveto 51 (perl-5.24.0) alignedtext
grestore
% 72851008->49728512
gsave
1 setlinewidth
0.33333 0.23922 0.73725 edgecolor
newpath 51.4809 170.5629 moveto
39.9326 165.8976 28.2533 158.7749 21.5 148 curveto
7.699 125.9804 16.3507 95.0871 24.4498 75.5611 curveto
stroke
0.33333 0.23922 0.73725 edgecolor
newpath 27.5388 77.2242 moveto
28.4739 66.6708 lineto
21.1616 74.3377 lineto
closepath fill
1 setlinewidth
solid
0.33333 0.23922 0.73725 edgecolor
newpath 27.5388 77.2242 moveto
28.4739 66.6708 lineto
21.1616 74.3377 lineto
closepath stroke
grestore
% 74872512
gsave
1 setlinewidth
0 0 0 nodecolor
newpath 149.5 148 moveto
87.5 148 lineto
87.5 130 lineto
149.5 130 lineto
closepath stroke
0 0 0 nodecolor
9 /dejavu sans set_font
95.5 136.8 moveto 46 (acl-2.2.52) alignedtext
grestore
% 72851008->74872512
gsave
1 setlinewidth
0.33333 0.23922 0.73725 edgecolor
newpath 92.4985 170.7291 moveto
95.9111 166.696 100.1463 161.6907 104.201 156.8988 curveto
stroke
0.33333 0.23922 0.73725 edgecolor
newpath 106.7464 159.3091 moveto
110.534 149.4144 lineto
101.4027 154.7875 lineto
closepath fill
1 setlinewidth
solid
0.33333 0.23922 0.73725 edgecolor
newpath 106.7464 159.3091 moveto
110.534 149.4144 lineto
101.4027 154.7875 lineto
closepath stroke
grestore
% 53180864
gsave
1 setlinewidth
0 0 0 nodecolor
newpath 216 148 moveto
151 148 lineto
151 130 lineto
216 130 lineto
closepath stroke
0 0 0 nodecolor
9 /dejavu sans set_font
159 136.8 moveto 49 (gmp-6.1.1) alignedtext
grestore
% 72851008->53180864
gsave
1 setlinewidth
0.33333 0.23922 0.73725 edgecolor
newpath 106.7645 170.5376 moveto
119.8635 165.3247 136.9053 158.5428 151.6008 152.6946 curveto
stroke
0.33333 0.23922 0.73725 edgecolor
newpath 152.8736 155.9551 moveto
160.8707 149.0056 lineto
150.2852 149.4512 lineto
closepath fill
1 setlinewidth
solid
0.33333 0.23922 0.73725 edgecolor
newpath 152.8736 155.9551 moveto
160.8707 149.0056 lineto
150.2852 149.4512 lineto
closepath stroke
grestore
% 75199232
gsave
1 setlinewidth
0 0 0 nodecolor
newpath 86.5 148 moveto
18.5 148 lineto
18.5 130 lineto
86.5 130 lineto
closepath stroke
0 0 0 nodecolor
9 /dejavu sans set_font
26.5 136.8 moveto 52 (libcap-2.24) alignedtext
grestore
% 72851008->75199232
gsave
1 setlinewidth
0.33333 0.23922 0.73725 edgecolor
newpath 78.5015 170.7291 moveto
75.0889 166.696 70.8537 161.6907 66.799 156.8988 curveto
stroke
0.33333 0.23922 0.73725 edgecolor
newpath 69.5973 154.7875 moveto
60.466 149.4144 lineto
64.2536 159.3091 lineto
closepath fill
1 setlinewidth
solid
0.33333 0.23922 0.73725 edgecolor
newpath 69.5973 154.7875 moveto
60.466 149.4144 lineto
64.2536 159.3091 lineto
closepath stroke
grestore
% 74872512->49728512
gsave
1 setlinewidth
0 1 1 edgecolor
newpath 119.4995 129.577 moveto
120.3067 118.7591 120.0389 99.9576 110.5 88 curveto
105.3397 81.5312 89.313 74.6276 73.2081 68.9811 curveto
stroke
0 1 1 edgecolor
newpath 74.756 65.8086 moveto
64.1621 65.9502 lineto
72.532 72.4459 lineto
closepath fill
1 setlinewidth
solid
0 1 1 edgecolor
newpath 74.756 65.8086 moveto
64.1621 65.9502 lineto
72.532 72.4459 lineto
closepath stroke
grestore
% 74873280
gsave
1 setlinewidth
0 0 0 nodecolor
newpath 199 65 moveto
68 65 lineto
68 47 lineto
199 47 lineto
closepath stroke
0 0 0 nodecolor
9 /dejavu sans set_font
76 53.8 moveto 115 (gettext-minimal-0.19.8.1) alignedtext
grestore
% 74872512->74873280
gsave
1 setlinewidth
0 1 1 edgecolor
newpath 120.0488 129.6367 moveto
122.3617 117.1467 126.7822 93.276 129.924 76.3107 curveto
stroke
0 1 1 edgecolor
newpath 133.2821 77.3976 moveto
131.6616 66.9274 lineto
126.3991 76.1229 lineto
closepath fill
1 setlinewidth
solid
0 1 1 edgecolor
newpath 133.2821 77.3976 moveto
131.6616 66.9274 lineto
126.3991 76.1229 lineto
closepath stroke
grestore
% 74872704
gsave
1 setlinewidth
0 0 0 nodecolor
newpath 110 106 moveto
45 106 lineto
45 88 lineto
110 88 lineto
closepath stroke
0 0 0 nodecolor
9 /dejavu sans set_font
53 94.8 moveto 49 (attr-2.4.47) alignedtext
grestore
% 74872512->74872704
gsave
1 setlinewidth
0 1 1 edgecolor
newpath 109.805 129.517 moveto
105.2389 125.0623 99.4875 119.4512 94.1075 114.2024 curveto
stroke
0 1 1 edgecolor
newpath 96.8679 112.0057 moveto
87.2659 107.5277 lineto
91.9796 117.0162 lineto
closepath fill
1 setlinewidth
solid
0 1 1 edgecolor
newpath 96.8679 112.0057 moveto
87.2659 107.5277 lineto
91.9796 117.0162 lineto
closepath stroke
grestore
% 50262784
gsave
1 setlinewidth
0 0 0 nodecolor
newpath 216 106 moveto
151 106 lineto
151 88 lineto
216 88 lineto
closepath stroke
0 0 0 nodecolor
9 /dejavu sans set_font
159 94.8 moveto 49 (m4-1.4.17) alignedtext
grestore
% 53180864->50262784
gsave
1 setlinewidth
0.11765 0.93725 0.72157 edgecolor
newpath 183.5 129.517 moveto
183.5 126.0169 183.5 121.8029 183.5 117.6116 curveto
stroke
0.11765 0.93725 0.72157 edgecolor
newpath 187.0001 117.9843 moveto
183.5 107.9843 lineto
180.0001 117.9843 lineto
closepath fill
1 setlinewidth
solid
0.11765 0.93725 0.72157 edgecolor
newpath 187.0001 117.9843 moveto
183.5 107.9843 lineto
180.0001 117.9843 lineto
closepath stroke
grestore
% 75199232->49728512
gsave
1 setlinewidth
0.66667 1 1 edgecolor
newpath 50.339 129.5917 moveto
48.6966 123.1456 46.4033 114.0236 44.5 106 curveto
42.2022 96.3132 39.7657 85.519 37.7715 76.5326 curveto
stroke
0.66667 1 1 edgecolor
newpath 41.2005 75.8293 moveto
35.6327 66.8154 lineto
34.3641 77.3341 lineto
closepath fill
1 setlinewidth
solid
0.66667 1 1 edgecolor
newpath 41.2005 75.8293 moveto
35.6327 66.8154 lineto
34.3641 77.3341 lineto
closepath stroke
grestore
% 75199232->74872704
gsave
1 setlinewidth
0.66667 1 1 edgecolor
newpath 57.8019 129.517 moveto
60.2546 125.5926 63.2682 120.7708 66.1939 116.0898 curveto
stroke
0.66667 1 1 edgecolor
newpath 69.0716 118.0892 moveto
71.4036 107.7542 lineto
63.1356 114.3792 lineto
closepath fill
1 setlinewidth
solid
0.66667 1 1 edgecolor
newpath 69.0716 118.0892 moveto
71.4036 107.7542 lineto
63.1356 114.3792 lineto
closepath stroke
grestore
% 41550784
gsave
1 setlinewidth
0 0 0 nodecolor
newpath 168 23 moveto
99 23 lineto
99 5 lineto
168 5 lineto
closepath stroke
0 0 0 nodecolor
9 /dejavu sans set_font
107 11.8 moveto 53 (expat-2.2.0) alignedtext
grestore
% 74873280->41550784
gsave
1 setlinewidth
0.49804 1 0.80392 edgecolor
newpath 133.5 46.517 moveto
133.5 43.0169 133.5 38.8029 133.5 34.6116 curveto
stroke
0.49804 1 0.80392 edgecolor
newpath 137.0001 34.9843 moveto
133.5 24.9843 lineto
130.0001 34.9843 lineto
closepath fill
1 setlinewidth
solid
0.49804 1 0.80392 edgecolor
newpath 137.0001 34.9843 moveto
133.5 24.9843 lineto
130.0001 34.9843 lineto
closepath stroke
grestore
% 74872704->49728512
gsave
1 setlinewidth
0.49804 1 0.80392 edgecolor
newpath 68.1687 87.7291 moveto
63.2685 83.3858 57.0963 77.9149 51.3227 72.7973 curveto
stroke
0.49804 1 0.80392 edgecolor
newpath 53.7556 70.2768 moveto
43.9505 66.2629 lineto
49.1124 75.5152 lineto
closepath fill
1 setlinewidth
solid
0.49804 1 0.80392 edgecolor
newpath 53.7556 70.2768 moveto
43.9505 66.2629 lineto
49.1124 75.5152 lineto
closepath stroke
grestore
% 74872704->74873280
gsave
1 setlinewidth
0.49804 1 0.80392 edgecolor
newpath 89.6512 87.5376 moveto
96.1823 82.9891 104.4288 77.246 112.0032 71.971 curveto
stroke
0.49804 1 0.80392 edgecolor
newpath 113.9247 74.898 moveto
120.1305 66.3109 lineto
109.9242 69.1537 lineto
closepath fill
1 setlinewidth
solid
0.49804 1 0.80392 edgecolor
newpath 113.9247 74.898 moveto
120.1305 66.3109 lineto
109.9242 69.1537 lineto
closepath stroke
grestore
endpage
showpage
grestore
%%PageTrailer
%%EndPage: 1
%%Trailer
end
restore
%%EOF
